{
  "project_info": {
    "project_number": "294272507753",
    "firebase_url": "https://myfirebase3-185d9.firebaseio.com",
    "project_id": "myfirebase3-185d9",
    "storage_bucket": "myfirebase3-185d9.appspot.com"
  },
  "client": [
    {
      "client_info": {
        "mobilesdk_app_id": "1:294272507753:android:c81920fd228e3a78",
        "android_client_info": {
          "package_name": "com.example.mac.macassignment7"
        }
      },
      "oauth_client": [
        {
          "client_id": "294272507753-20oe6fta0sqo3n51atcipckrjb01f9bp.apps.googleusercontent.com",
          "client_type": 1,
          "android_info": {
            "package_name": "com.example.mac.macassignment7",
            "certificate_hash": "ea8e0ef51613c3bbb84c9bc4fcc52bf6e97c097f"
          }
        },
        {
          "client_id": "294272507753-7vkqj567aks9ojf2mp885is3ok8b55jd.apps.googleusercontent.com",
          "client_type": 3
        }
      ],
      "api_key": [
        {
          "current_key": "AIzaSyDoXHtCI1jj1tW7BzpTFrpo1KtV1wRGBx8"
        }
      ],
      "services": {
        "analytics_service": {
          "status": 1
        },
        "appinvite_service": {
          "status": 2,
          "other_platform_oauth_client": [
            {
              "client_id": "294272507753-7vkqj567aks9ojf2mp885is3ok8b55jd.apps.googleusercontent.com",
              "client_type": 3
            }
          ]
        },
        "ads_service": {
          "status": 2
        }
      }
    }
  ],
  "configuration_version": "1"
}